{
  "2008": {
    "MC Henriques": {
      "runs": 19,
      "balls": 46,
      "strikeRate": 41.30434782608695
    },
    "S Dhawan": {
      "runs": 4,
      "balls": 11,
      "strikeRate": 36.36363636363637
    },
    "Yuvraj Singh": {
      "runs": 65,
      "balls": 113,
      "strikeRate": 57.52212389380531
    },
    "DJ Hooda": {
      "runs": 15,
      "balls": 41,
      "strikeRate": 36.58536585365854
    },
    "BCJ Cutting": {
      "runs": 1,
      "balls": 5,
      "strikeRate": 20
    }
  },
  "2009": {
    "DJ Hooda": {
      "runs": 1,
      "balls": 8,
      "strikeRate": 12.5
    },
    "BCJ Cutting": {
      "runs": 15,
      "balls": 19,
      "strikeRate": 78.94736842105263
    },
    "CH Gayle": {
      "runs": 34,
      "balls": 73,
      "strikeRate": 46.57534246575342
    },
    "Mandeep Singh": {
      "runs": 24,
      "balls": 62,
      "strikeRate": 38.70967741935484
    },
    "TM Head": {
      "runs": 11,
      "balls": 31,
      "strikeRate": 35.483870967741936
    },
    "KM Jadhav": {
      "runs": 5,
      "balls": 16,
      "strikeRate": 31.25
    }
  },
  "2010": {
    "TM Head": {
      "runs": 19,
      "balls": 48,
      "strikeRate": 39.58333333333333
    },
    "KM Jadhav": {
      "runs": 29,
      "balls": 62,
      "strikeRate": 46.774193548387096
    },
    "SR Watson": {
      "runs": 22,
      "balls": 61,
      "strikeRate": 36.0655737704918
    },
    "Sachin Baby": {
      "runs": 1,
      "balls": 7,
      "strikeRate": 14.285714285714285
    },
    "STR Binny": {
      "runs": 11,
      "balls": 32,
      "strikeRate": 34.375
    },
    "S Aravind": {
      "runs": 0,
      "balls": 6,
      "strikeRate": 0
    }
  },
  "2011": {
    "S Aravind": {
      "runs": 0,
      "balls": 4,
      "strikeRate": 0
    },
    "YS Chahal": {
      "runs": 3,
      "balls": 25,
      "strikeRate": 12
    },
    "TS Mills": {
      "runs": 7,
      "balls": 10,
      "strikeRate": 70
    },
    "A Choudhary": {
      "runs": 6,
      "balls": 7,
      "strikeRate": 85.71428571428571
    },
    "PA Patel": {
      "runs": 20,
      "balls": 49,
      "strikeRate": 40.816326530612244
    },
    "JC Buttler": {
      "runs": 38,
      "balls": 75,
      "strikeRate": 50.66666666666667
    },
    "RG Sharma": {
      "runs": 3,
      "balls": 20,
      "strikeRate": 15
    },
    "N Rana": {
      "runs": 12,
      "balls": 40,
      "strikeRate": 30
    },
    "AT Rayudu": {
      "runs": 8,
      "balls": 27,
      "strikeRate": 29.629629629629626
    }
  },
  "2012": {
    "AT Rayudu": {
      "runs": 3,
      "balls": 11,
      "strikeRate": 27.27272727272727
    },
    "N Rana": {
      "runs": 23,
      "balls": 75,
      "strikeRate": 30.666666666666664
    },
    "KH Pandya": {
      "runs": 5,
      "balls": 20,
      "strikeRate": 25
    },
    "KA Pollard": {
      "runs": 27,
      "balls": 62,
      "strikeRate": 43.54838709677419
    },
    "HH Pandya": {
      "runs": 38,
      "balls": 62,
      "strikeRate": 61.29032258064516
    },
    "TG Southee": {
      "runs": 7,
      "balls": 14,
      "strikeRate": 50
    },
    "AM Rahane": {
      "runs": 10,
      "balls": 22,
      "strikeRate": 45.45454545454545
    },
    "MA Agarwal": {
      "runs": 6,
      "balls": 9,
      "strikeRate": 66.66666666666666
    }
  },
  "2013": {
    "AM Rahane": {
      "runs": 50,
      "balls": 95,
      "strikeRate": 52.63157894736842
    },
    "MA Agarwal": {
      "runs": 2,
      "balls": 11,
      "strikeRate": 18.181818181818183
    },
    "SPD Smith": {
      "runs": 49,
      "balls": 128,
      "strikeRate": 38.28125
    },
    "BA Stokes": {
      "runs": 11,
      "balls": 36,
      "strikeRate": 30.555555555555557
    }
  },
  "2014": {
    "BA Stokes": {
      "runs": 11,
      "balls": 18,
      "strikeRate": 61.111111111111114
    },
    "SPD Smith": {
      "runs": 36,
      "balls": 79,
      "strikeRate": 45.56962025316456
    },
    "MS Dhoni": {
      "runs": 12,
      "balls": 37,
      "strikeRate": 32.432432432432435
    },
    "JJ Roy": {
      "runs": 15,
      "balls": 47,
      "strikeRate": 31.914893617021278
    },
    "BB McCullum": {
      "runs": 13,
      "balls": 28,
      "strikeRate": 46.42857142857143
    },
    "SK Raina": {
      "runs": 1,
      "balls": 5,
      "strikeRate": 20
    }
  },
  "2015": {
    "BB McCullum": {
      "runs": 23,
      "balls": 60,
      "strikeRate": 38.333333333333336
    },
    "SK Raina": {
      "runs": 39,
      "balls": 89,
      "strikeRate": 43.82022471910113
    },
    "AJ Finch": {
      "runs": 15,
      "balls": 28,
      "strikeRate": 53.57142857142857
    },
    "KD Karthik": {
      "runs": 7,
      "balls": 29,
      "strikeRate": 24.137931034482758
    }
  },
  "2016": {
    "SK Raina": {
      "runs": 29,
      "balls": 81,
      "strikeRate": 35.80246913580247
    },
    "KD Karthik": {
      "runs": 41,
      "balls": 67,
      "strikeRate": 61.19402985074627
    },
    "G Gambhir": {
      "runs": 13,
      "balls": 29,
      "strikeRate": 44.827586206896555
    },
    "CA Lynn": {
      "runs": 24,
      "balls": 49,
      "strikeRate": 48.97959183673469
    }
  },
  "2017": {
    "DA Warner": {
      "runs": 17,
      "balls": 28,
      "strikeRate": 60.71428571428571
    },
    "S Dhawan": {
      "runs": 37,
      "balls": 93,
      "strikeRate": 39.784946236559136
    },
    "MC Henriques": {
      "runs": 33,
      "balls": 91,
      "strikeRate": 36.26373626373626
    }
  }
}